{
  "type": "minecraft:crafting_shaped",
  "pattern":
  [
    "I I",
    "III",
    "III"
  ],
  "key":
  {
    "I": { "item": "pangeamod:lead_ingot" }
  },
  "result": { "item": "pangeamod:lead_chestplate" }
}